Capítulo 8 A / B - testing | AMAT- Ciencia de Datos y Machine Learning 2
…
Costo de promoción de servicio

El primer escenario considera que se obsequie un mes gratis de servicio al renovar un año completo. Para cada cliente se tiene en los datos el pago mensual que realizan, por lo que es posible priorizar de alguna manera a los clientes con mayor necesidad de retención

promo_1 <- class_results %>% 
  mutate(
    MonthlyCharges = telco_test$MonthlyCharges,
    Expected_Loss = .pred_Yes * MonthlyCharges) %>% 
  arrange(desc(Expected_Loss)) %>% 
  mutate(Budget = cumsum(MonthlyCharges)) %>% 
  filter(Budget <= 50000)

promo_1 %>% select(-Churn, -.pred_No)

## # A tibble: 587 × 5
##    customerID .pred_Yes MonthlyCharges Expected_Loss Budget
##    <chr>          <dbl>          <dbl>         <dbl>  <dbl>
##  1 1400-MMYXY     0.964          106.          102.    106.
##  2 5419-CONWX     0.946           99.8          94.4   206.
##  3 2754-SDJRD     0.921          100.           92.2   306.
##  4 3902-FOIGH     0.905          101.           91.7   407.
##  5 6210-KBBPI     0.918           99.4          91.3   507.
##  6 4716-HHKQH     0.852          107.           91.2   614.
##  7 8510-AWCXC     0.895          101.           90.2   714.
##  8 2012-NWRPA     0.903           99.6          89.9   814.
##  9 9851-KIELU     0.816          110.           89.9   924.
## 10 9300-AGZNL     0.946           94            89.0  1018.
## # … with 577 more rows
…
El segundo método es más sencillo de calcular, pues supone un costo constante para cualquier cliente. Al regalar un producto en donde la empresa paga $100 dólares por celular, se logra ofrecer \(50000/100 = 500\) productos.

promo_2 <- class_results %>% 
  mutate(
    MonthlyCharges = telco_test$MonthlyCharges,
    Profit = 100,
    Expected_Loss = .pred_Yes * MonthlyCharges) %>% 
  arrange(desc(Expected_Loss)) %>% 
  mutate(Budget = cumsum(Profit)) %>% 
  filter(Budget <= 50000)

promo_2 %>% select(-Churn, -.pred_No)

## # A tibble: 500 × 6
##    customerID .pred_Yes MonthlyCharges Profit Expected_Loss Budget
##    <chr>          <dbl>          <dbl>  <dbl>         <dbl>  <dbl>
##  1 1400-MMYXY     0.964          106.     100         102.     100
##  2 5419-CONWX     0.946           99.8    100          94.4    200
##  3 2754-SDJRD     0.921          100.     100          92.2    300
##  4 3902-FOIGH     0.905          101.     100          91.7    400
##  5 6210-KBBPI     0.918           99.4    100          91.3    500
##  6 4716-HHKQH     0.852          107.     100          91.2    600
##  7 8510-AWCXC     0.895          101.     100          90.2    700
##  8 2012-NWRPA     0.903           99.6    100          89.9    800
##  9 9851-KIELU     0.816          110.     100          89.9    900
## 10 9300-AGZNL     0.946           94      100          89.0   1000
## # … with 490 more rows
…
A diferencia del primer método, el umbral de probabilidad con esta segunda campaña es cercano a 0.30, lo que implica mayor precisión a costa de menor cobertura. Adicionalmente, el beneficio total de renovación de contrato es menor que el beneficio alcanzado por el primer método en el escenario utópico en que todos los clientes renuevan.

Estos cálculos sirven exclusivamente para acotar los escenarios, pues no es de esperarse que realmente todos los clientes renueven sus contratos. En las siguientes secciones se procede a realizar experimentos para evaluar cuál de las campañas tiene una mayor tasa de retención de clientes.

set.seed(13582)
results_promo_1 <- promo_1 %>% 
  rowwise() %>% 
  mutate(
    result = rbinom(1,1,0.40),
    cancell = if_else(result == 1, "Yes", "No")) %>% 
  select(-result)

results_promo_1

## # A tibble: 587 × 8
## # Rowwise: 
##    customerID .pred_No .pred_Yes Churn MonthlyCharges Expected_Loss Budget
##    <chr>         <dbl>     <dbl> <fct>          <dbl>         <dbl>  <dbl>
##  1 1400-MMYXY   0.0364     0.964 Yes            106.          102.    106.
##  2 5419-CONWX   0.0544     0.946 Yes             99.8          94.4   206.
##  3 2754-SDJRD   0.0789     0.921 No             100.           92.2   306.
##  4 3902-FOIGH   0.0954     0.905 Yes            101.           91.7   407.
##  5 6210-KBBPI   0.0823     0.918 Yes             99.4          91.3   507.
##  6 4716-HHKQH   0.148      0.852 No             107.           91.2   614.
##  7 8510-AWCXC   0.105      0.895 Yes            101.           90.2   714.
##  8 2012-NWRPA   0.0971     0.903 Yes             99.6          89.9   814.
##  9 9851-KIELU   0.184      0.816 Yes            110.           89.9   924.
## 10 9300-AGZNL   0.0536     0.946 Yes             94            89.0  1018.
## # … with 577 more rows, and 1 more variable: cancell <chr>
…
## Joining, by = "customerID"

marco

## # A tibble: 907 × 5
##    customerID gender Contract       estrato .pred_Yes
##    <chr>      <chr>  <chr>          <chr>       <dbl>
##  1 9305-CDSKC Female Month-to-month 1-1         0.753
##  2 4183-MYFRB Female Month-to-month 1-1         0.453
##  3 8665-UTDHZ Male   Month-to-month 2-1         0.217
##  4 6827-IEAUQ Female One year       1-2         0.206
##  5 6047-YHPVI Male   Month-to-month 2-1         0.517
##  6 4080-IIARD Female Month-to-month 1-1         0.455
##  7 1658-BYGOY Male   Month-to-month 2-1         0.814
##  8 7410-OIEDU Male   Month-to-month 2-1         0.518
##  9 2273-QCKXA Male   Month-to-month 2-1         0.357
## 10 1891-QRQSA Male   Two year       2-3         0.210
## # … with 897 more rows
…
## 
## Population total and number of selected units: 907 450

muestra_1

## # A tibble: 450 × 2
##    ID_unit  Prob
##      <int> <dbl>
##  1       2 0.496
##  2       3 0.496
##  3       4 0.496
##  4       5 0.496
##  5       6 0.496
##  6       7 0.496
##  7       8 0.496
##  8      12 0.496
##  9      13 0.496
## 10      14 0.496
## # … with 440 more rows
…
