Capítulo 8 A/B testing | AMAT- Ciencia de Datos y Machine Learning 2
…
Costo de promoción de servicio

El primer escenario considera que se obsequie un mes gratis de servicio al renovar un año completo. Para cada cliente se tiene en los datos el pago mensual que realizan, por lo que es posible priorizar de alguna manera a los clientes con mayor necesidad de retención

promo_1 <- class_results %>% 
  mutate(
    MonthlyCharges = telco_test$MonthlyCharges,
    Expected_Loss = .pred_Yes * MonthlyCharges) %>% 
  arrange(desc(Expected_Loss)) %>% 
  mutate(Budget = cumsum(MonthlyCharges)) %>% 
  filter(Budget <= 50000)

promo_1 %>% select(-Churn, -.pred_No)

## # A tibble: 587 × 5
##    customerID .pred_Yes MonthlyCharges Expected_Loss Budget
##    <chr>          <dbl>          <dbl>         <dbl>  <dbl>
##  1 1400-MMYXY     0.964          106.          102.    106.
##  2 5419-CONWX     0.946           99.8          94.4   206.
##  3 2754-SDJRD     0.921          100.           92.2   306.
##  4 3902-FOIGH     0.905          101.           91.7   407.
##  5 6210-KBBPI     0.918           99.4          91.3   507.
##  6 4716-HHKQH     0.852          107.           91.2   614.
##  7 8510-AWCXC     0.895          101.           90.2   714.
##  8 2012-NWRPA     0.903           99.6          89.9   814.
##  9 9851-KIELU     0.816          110.           89.9   924.
## 10 9300-AGZNL     0.946           94            89.0  1018.
## # … with 577 more rows
…
El segundo método es más sencillo de calcular, pues supone un costo constante para cualquier cliente. Al regalar un producto en donde la empresa paga $100 dólares por celular, se logra ofrecer \(50000/100 = 500\) productos.

promo_2 <- class_results %>% 
  mutate(
    MonthlyCharges = telco_test$MonthlyCharges,
    Profit = 100,
    Expected_Loss = .pred_Yes * MonthlyCharges) %>% 
  arrange(desc(Expected_Loss)) %>% 
  mutate(Budget = cumsum(Profit)) %>% 
  filter(Budget <= 50000)

promo_2 %>% select(-Churn, -.pred_No)

## # A tibble: 500 × 6
##    customerID .pred_Yes MonthlyCharges Profit Expected_Loss Budget
##    <chr>          <dbl>          <dbl>  <dbl>         <dbl>  <dbl>
##  1 1400-MMYXY     0.964          106.     100         102.     100
##  2 5419-CONWX     0.946           99.8    100          94.4    200
##  3 2754-SDJRD     0.921          100.     100          92.2    300
##  4 3902-FOIGH     0.905          101.     100          91.7    400
##  5 6210-KBBPI     0.918           99.4    100          91.3    500
##  6 4716-HHKQH     0.852          107.     100          91.2    600
##  7 8510-AWCXC     0.895          101.     100          90.2    700
##  8 2012-NWRPA     0.903           99.6    100          89.9    800
##  9 9851-KIELU     0.816          110.     100          89.9    900
## 10 9300-AGZNL     0.946           94      100          89.0   1000
## # … with 490 more rows
…
