Capítulo 4 Bagging & Boosting | AMAT- Ciencia de Datos y Machine Learning 2
…
# Se entrena un modelo para cada muestra. 
ames_models <- ames_boot %>%
  mutate(
    model = map(
     splits, ~ lm(Sale_Price ~ 0 + log10(Gr_Liv_Area) + Full_Bath + Year_Built, 
                  data = .)),
    coef_info = map(model, tidy)
  )

ames_coefs <- ames_models %>% unnest(coef_info)
ames_coefs

## # A tibble: 1,503 × 8
##    splits              id      model term  estimate std.error statistic  p.value
##    <list>              <chr>   <lis> <chr>    <dbl>     <dbl>     <dbl>    <dbl>
##  1 <split [2930/1106]> Bootst… <lm>  log1…  206873.    9544.       21.7 9.71e-97
##  2 <split [2930/1106]> Bootst… <lm>  Full…   49994.    2434.       20.5 1.14e-87
##  3 <split [2930/1106]> Bootst… <lm>  Year…    -278.      14.4     -19.4 9.39e-79
##  4 <split [2930/1082]> Bootst… <lm>  log1…  208068.    9997.       20.8 7.66e-90
##  5 <split [2930/1082]> Bootst… <lm>  Full…   49639.    2541.       19.5 5.35e-80
##  6 <split [2930/1082]> Bootst… <lm>  Year…    -281.      15.1     -18.6 2.40e-73
##  7 <split [2930/1055]> Bootst… <lm>  log1…  212558.    9685.       21.9 5.78e-99
##  8 <split [2930/1055]> Bootst… <lm>  Full…   48700.    2454.       19.8 2.32e-82
##  9 <split [2930/1055]> Bootst… <lm>  Year…    -287.      14.6     -19.7 3.45e-81
## 10 <split [2930/1074]> Bootst… <lm>  log1…  205522.    9420.       21.8 6.60e-98
## # … with 1,493 more rows
…
Paso 5: Creación de grid search

xgboost_param_grid <- grid_latin_hypercube(
  tree_depth(range = c(3, 50)),
  min_n(range = c(2,50)),
  loss_reduction(range = c(-10, 1.5), trans = log10_trans()),
  learn_rate(range = c(-6, -0.25), trans = log10_trans()),
  mtry(range = c(1, 70)),
  sample_size = sample_prop(),
  size = 1000
)

xgboost_param_grid

## # A tibble: 1,000 × 6
##    tree_depth min_n loss_reduction learn_rate  mtry sample_size
##         <int> <int>          <dbl>      <dbl> <int>       <dbl>
##  1          8    50  7.99          0.0000189     13       0.910
##  2          7    47  0.000000222   0.144         46       0.986
##  3         32     6  0.00000000222 0.00000352    24       0.750
##  4         29    35  0.00199       0.0000131     16       0.621
##  5         35    16  0.00000646    0.00000246    59       0.560
##  6         15    48  1.46          0.000118      51       0.112
##  7          4     4  0.000000330   0.00000630    26       0.154
##  8         27    10  0.000426      0.269         17       0.278
##  9         50     7  0.807         0.000384      17       0.262
## 10         38    28  0.00970       0.00419       68       0.576
## # … with 990 more rows
…
stopCluster(cluster)

xgboost_reg_tune_result %>% saveRDS("models/xgboost_model_reg.rds")

Paso 7: Análisis de métricas de error e hiperparámetros (Vuelve al paso 3, si es necesario)

xgboost_reg_tune_result <- readRDS("models/xgboost_model_reg.rds")

collect_metrics(xgboost_reg_tune_result)

## # A tibble: 4,000 × 12
##     mtry min_n tree_depth learn_rate loss_reduction sample_size .metric
##    <int> <int>      <int>      <dbl>          <dbl>       <dbl> <chr>  
##  1    58    36         36  0.0000895    0.000000405       0.965 mae    
##  2    58    36         36  0.0000895    0.000000405       0.965 mape   
##  3    58    36         36  0.0000895    0.000000405       0.965 rmse   
##  4    58    36         36  0.0000895    0.000000405       0.965 rsq    
##  5    45    18         27  0.0000425    0.572             0.314 mae    
##  6    45    18         27  0.0000425    0.572             0.314 mape   
##  7    45    18         27  0.0000425    0.572             0.314 rmse   
##  8    45    18         27  0.0000425    0.572             0.314 rsq    
##  9    22    12         25  0.0000154    0.000925          0.287 mae    
## 10    22    12         25  0.0000154    0.000925          0.287 mape   
## # … with 3,990 more rows, and 5 more variables: .estimator <chr>, mean <dbl>,
## #   n <int>, std_err <dbl>, .config <chr>
…
Paso 5: Creación de grid search

xgboost_param_grid <- grid_latin_hypercube(
  tree_depth(range = c(2, 30)),
  min_n(range = c(2,50)),
  loss_reduction(range = c(-10, 1.5), trans = log10_trans()),
  learn_rate(range = c(-6, -0.25), trans = log10_trans()),
  mtry(range = c(1, 20)),
  sample_size = sample_prop(),
  size = 500
)

xgboost_param_grid

## # A tibble: 500 × 6
##    tree_depth min_n loss_reduction learn_rate  mtry sample_size
##         <int> <int>          <dbl>      <dbl> <int>       <dbl>
##  1          4     6  0.00237       0.0000277     19       0.637
##  2         28    17  0.0189        0.0612        15       0.557
##  3         13    18  0.000467      0.0436         5       0.977
##  4          5    22  0.272         0.388         14       0.192
##  5         10    45  0.000143      0.0383        18       0.480
##  6         24    37  0.00000000778 0.00000364     1       0.233
##  7         11    23  0.0000000629  0.00000795    15       0.531
##  8          9    30  2.07          0.000773      17       0.896
##  9         11    11  0.000000160   0.227         16       0.160
## 10          5    35  0.00000000477 0.0000427     13       0.209
## # … with 490 more rows
…
xgb2 <- Sys.time(); xgb2 - xgbt1

stopCluster(cluster)

xgboost_tune_result %>% saveRDS("models/xgboost_model_classification.rds")

Paso 7: Análisis de métricas de error e hiperparámetros (Vuelve al paso 3, si es necesario)

xgboost_tune_result <- readRDS("models/xgboost_model_classification.rds")

collect_metrics(xgboost_tune_result)

## # A tibble: 1,000 × 12
##     mtry min_n tree_depth learn_rate loss_reduction sample_size .metric
##    <int> <int>      <int>      <dbl>          <dbl>       <dbl> <chr>  
##  1    17    25         15 0.00000885       5.95e-10       0.461 pr_auc 
##  2    17    25         15 0.00000885       5.95e-10       0.461 roc_auc
##  3     9    16          4 0.0757           4.82e- 4       0.349 pr_auc 
##  4     9    16          4 0.0757           4.82e- 4       0.349 roc_auc
##  5     2     8         18 0.0000319        9.32e- 8       0.293 pr_auc 
##  6     2     8         18 0.0000319        9.32e- 8       0.293 roc_auc
##  7     4    24         25 0.00592          3.02e- 7       0.926 pr_auc 
##  8     4    24         25 0.00592          3.02e- 7       0.926 roc_auc
##  9     4    48         28 0.352            6.40e- 5       0.366 pr_auc 
## 10     4    48         28 0.352            6.40e- 5       0.366 roc_auc
## # … with 990 more rows, and 5 more variables: .estimator <chr>, mean <dbl>,
## #   n <int>, std_err <dbl>, .config <chr>
…
A continuación, conoceremos el nivel de sensitividad y especificidad para cada punto de corte:

roc_curve_data <- roc_curve(
  class_results, 
  truth = Churn, 
  estimate = .pred_Yes, 
  event_level = 'second'
  )

roc_curve_data

## # A tibble: 1,864 × 3
##    .threshold specificity sensitivity
##         <dbl>       <dbl>       <dbl>
##  1   -Inf        0                  1
##  2      0.487    0                  1
##  3      0.487    0.000646           1
##  4      0.487    0.00323            1
##  5      0.487    0.00388            1
##  6      0.487    0.00452            1
##  7      0.487    0.00646            1
##  8      0.487    0.00776            1
##  9      0.487    0.00905            1
## 10      0.487    0.0103             1
## # … with 1,854 more rows
…
De igual manera, podemos calcular la precisión y cobertura para cada punte de corte:

pr_curve_data <- pr_curve(
  class_results, 
  truth = Churn, 
  estimate = .pred_Yes, 
  event_level = 'second'
  )

pr_curve_data

## # A tibble: 1,863 × 3
##    .threshold  recall precision
##         <dbl>   <dbl>     <dbl>
##  1    Inf     0           1    
##  2      0.507 0.00177     1    
##  3      0.507 0.00353     1    
##  4      0.507 0.00707     1    
##  5      0.507 0.0106      1    
##  6      0.507 0.0124      1    
##  7      0.507 0.0124      0.875
##  8      0.507 0.0141      0.889
##  9      0.507 0.0159      0.9  
## 10      0.507 0.0177      0.909
## # … with 1,853 more rows
…
