Capítulo 2 Feature Engineering | AMAT- Ciencia de Datos y Machine Learning 2
…
library(tidymodels)

n = 100
set.seed(12345)
original_data <- tibble(x = seq(-10, 10, lengt=n)) %>% 
  mutate(y = x^3 + rnorm(n, mean = 0, sd = 100))
  
poly_recipe <- recipe(y ~ x, data = original_data) %>% 
  step_poly(x, degree = 3) %>% 
  prep()

juice(poly_recipe)

## # A tibble: 100 × 4
##        y x_poly_1 x_poly_2 x_poly_3
##    <dbl>    <dbl>    <dbl>    <dbl>
##  1 -941.   -0.171    0.217  -0.249 
##  2 -870.   -0.168    0.204  -0.219 
##  3 -895.   -0.165    0.191  -0.190 
##  4 -874.   -0.161    0.178  -0.163 
##  5 -716.   -0.158    0.166  -0.137 
##  6 -908.   -0.154    0.154  -0.113 
##  7 -616.   -0.151    0.142  -0.0904
##  8 -661.   -0.147    0.131  -0.0690
##  9 -618.   -0.144    0.119  -0.0489
## 10 -640.   -0.140    0.108  -0.0302
## # … with 90 more rows
…
pca_recipe <- recipe(IM ~ ., data = indice_marg) %>%
  update_role(NOM_ENT, GM, new_role = "id") %>%
  step_normalize(ANALF, SPRIM, OVSDE, OVSEE, OVSAE, VHAC, OVPT, PL_5000, PO2SM) %>%
  step_pca(ANALF, SPRIM, OVSDE, OVSEE, OVSAE, VHAC, OVPT, PL_5000, PO2SM, num_comp=9, res="res") %>% 
  step_rm(LUGAR, AÑO, POB_TOT) %>% 
  prep()

juice(pca_recipe)

## # A tibble: 32 × 13
##    CVE_ENT GM     NOM_ENT      IM    PC1     PC2     PC3     PC4     PC5     PC6
##    <fct>   <fct>  <fct>     <dbl>  <dbl>   <dbl>   <dbl>   <dbl>   <dbl>   <dbl>
##  1 01      Bajo   Aguasc… -0.911  -2.34  -0.227   0.372   0.492   0.264   0.0764
##  2 02      Muy b… Baja C… -1.14   -2.93   0.595  -0.0597 -0.492   0.291  -0.0508
##  3 03      Bajo   Baja C… -0.681  -1.75   1.37   -0.683  -0.400  -0.304   0.160 
##  4 04      Alto   Campec…  0.434   1.12  -0.819  -0.151  -0.271  -0.929   0.178 
##  5 05      Muy b… Coahui… -1.14   -2.93  -0.144   0.157  -0.133   0.0419 -0.0786
##  6 06      Bajo   Colima  -0.779  -2.00   0.0316  0.552  -0.136   0.320  -0.729 
##  7 07      Muy a… Chiapas  2.32    5.96   0.132   1.36   -0.0122 -0.673  -0.471 
##  8 08      Bajo   Chihua… -0.520  -1.34   1.05   -1.27    0.633  -0.646  -0.387 
##  9 09      Muy b… Distri… -1.48   -3.81   0.110   0.159  -0.453   0.205  -0.355 
## 10 10      Medio  Durango  0.0525  0.135  0.675  -1.50    0.929  -0.448   0.146 
## # … with 22 more rows, and 3 more variables: PC7 <dbl>, PC8 <dbl>, PC9 <dbl>
…
La segunda opción elegirá tantas componentes como sean necesarias hasta alcanzar el hiperparámetro mínimo indicado. A continuación se ejemplifica:

Caso 1:

pca_recipe <- recipe(IM ~ ., data = indice_marg) %>%
  update_role(NOM_ENT, GM, new_role = "id") %>%
  step_normalize(ANALF, SPRIM, OVSDE, OVSEE, OVSAE, VHAC, OVPT, PL_5000, PO2SM) %>%
  step_pca(ANALF, SPRIM, OVSDE, OVSEE, OVSAE, VHAC, OVPT, PL_5000, PO2SM,num_comp=2) %>% 
  step_rm(LUGAR, AÑO, POB_TOT) %>% 
  prep()

juice(pca_recipe)

## # A tibble: 32 × 6
##    CVE_ENT GM       NOM_ENT                   IM    PC1     PC2
##    <fct>   <fct>    <fct>                  <dbl>  <dbl>   <dbl>
##  1 01      Bajo     Aguascalientes       -0.911  -2.34  -0.227 
##  2 02      Muy bajo Baja California      -1.14   -2.93   0.595 
##  3 03      Bajo     Baja California Sur  -0.681  -1.75   1.37  
##  4 04      Alto     Campeche              0.434   1.12  -0.819 
##  5 05      Muy bajo Coahuila de Zaragoza -1.14   -2.93  -0.144 
##  6 06      Bajo     Colima               -0.779  -2.00   0.0316
##  7 07      Muy alto Chiapas               2.32    5.96   0.132 
##  8 08      Bajo     Chihuahua            -0.520  -1.34   1.05  
##  9 09      Muy bajo Distrito Federal     -1.48   -3.81   0.110 
## 10 10      Medio    Durango               0.0525  0.135  0.675 
## # … with 22 more rows

Caso 2:

pca_recipe <- recipe(IM ~ ., data = indice_marg) %>%
  update_role(NOM_ENT, GM, new_role = "id") %>%
  step_normalize(ANALF, SPRIM, OVSDE, OVSEE, OVSAE, VHAC, OVPT, PL_5000, PO2SM) %>%
  step_pca(ANALF, SPRIM, OVSDE, OVSEE, OVSAE, VHAC, OVPT, PL_5000, PO2SM,threshold=0.90) %>% 
  step_rm(LUGAR, AÑO, POB_TOT) %>% 
  prep()

juice(pca_recipe)

## # A tibble: 32 × 8
##    CVE_ENT GM       NOM_ENT                   IM    PC1     PC2     PC3     PC4
##    <fct>   <fct>    <fct>                  <dbl>  <dbl>   <dbl>   <dbl>   <dbl>
##  1 01      Bajo     Aguascalientes       -0.911  -2.34  -0.227   0.372   0.492 
##  2 02      Muy bajo Baja California      -1.14   -2.93   0.595  -0.0597 -0.492 
##  3 03      Bajo     Baja California Sur  -0.681  -1.75   1.37   -0.683  -0.400 
##  4 04      Alto     Campeche              0.434   1.12  -0.819  -0.151  -0.271 
##  5 05      Muy bajo Coahuila de Zaragoza -1.14   -2.93  -0.144   0.157  -0.133 
##  6 06      Bajo     Colima               -0.779  -2.00   0.0316  0.552  -0.136 
##  7 07      Muy alto Chiapas               2.32    5.96   0.132   1.36   -0.0122
##  8 08      Bajo     Chihuahua            -0.520  -1.34   1.05   -1.27    0.633 
##  9 09      Muy bajo Distrito Federal     -1.48   -3.81   0.110   0.159  -0.453 
## 10 10      Medio    Durango               0.0525  0.135  0.675  -1.50    0.929 
## # … with 22 more rows
…
biomass_te_whole$carbon[carb_missing] <- NA
biomass_te_whole$nitrogen[nitro_missing] <- NA
biomass_te_whole["carb_imputed"] <- "No"
biomass_te_whole$carb_imputed[carb_missing] <- "Yes"
biomass_te_whole["nitro_imputed"] <- "No"
biomass_te_whole$nitro_imputed[nitro_missing] <- "Yes"

biomass_tr <- biomass_te_whole %>% filter( dataset == 'Training')
biomass_te <- biomass_te_whole %>% filter( dataset == "Testing") 

biomass_te_whole[nitro_missing,]

## # A tibble: 75 × 10
##    sample      dataset carbon hydrogen oxygen nitrogen sulfur   HHV carb_imputed
##    <chr>       <chr>    <dbl>    <dbl>  <dbl>    <dbl>  <dbl> <dbl> <chr>       
##  1 Red Alder … Traini…   49.6     6.06   43.8       NA   0.07  19.3 No          
##  2 Cereals, H… Traini…   44.8     5      42.5       NA   0.13  18.4 No          
##  3 Sewage Slu… Traini…   28.3     4.07   17.5       NA   1.25  12.1 No          
##  4 Palm Fibre  Testing   47.5     6.01   36.4       NA   0.3   19.2 No          
##  5 Rice Straw  Traini…   35.7     4.62   39.1       NA   0     14.8 No          
##  6 Prune Pits  Traini…   49.3     6.59   41.8       NA   0.07  20.1 No          
##  7 Ryegrass S… Traini…   46.7     5.8    41.9       NA   0.2   18.5 No          
##  8 Peanut Hul… Traini…   45.8     5.46   39.6       NA   0.12  18.6 No          
##  9 Cereals, H… Traini…   NA       4.9    43.1       NA   0.12  18.2 Yes         
## 10 Erco Char   Traini…   65.9     2.57   12.8       NA   0.1   24.2 No          
## # … with 65 more rows, and 1 more variable: nitro_imputed <chr>
…
