Capítulo 4 Support Vector Machine (SVM / SVR) | AMAT- Ciencia de Datos y Machine Learning 2
…
svm_parameters_set <- svm_workflow %>% 
  parameters() %>% 
  update(
   cost = cost(c(0, 0.5)),
   rbf_sigma = rbf_sigma(c(-3, 3)), 
   margin = svm_margin(c(-2, 2))
   )

set.seed(123)
svm_grid <- svm_parameters_set %>% 
  grid_max_entropy(size = 100)
svm_grid

## # A tibble: 100 × 3
##     cost rbf_sigma margin
##    <dbl>     <dbl>  <dbl>
##  1  1.22    0.504   0.571
##  2  1.41    1.22    0.329
##  3  1.33    0.111   1.38 
##  4  1.35    0.0935 -1.65 
##  5  1.04    0.937   1.48 
##  6  1.14    0.0154 -1.91 
##  7  1.39   70.2    -1.98 
##  8  1.07    1.16   -0.487
##  9  1.17    1.34    0.948
## 10  1.02    0.0303  0.230
## # … with 90 more rows
…
stopCluster(cluster)

svm_tune_result %>% saveRDS("models/svm_model_reg.rds")

Podemos obtener las métricas de cada fold con el siguiente código:

svm_tune_result <- readRDS("models/svm_model_reg.rds")

unnest(svm_tune_result, .metrics)

## # A tibble: 3,000 × 11
##    splits             id      cost rbf_sigma margin .metric .estimator .estimate
##    <list>             <chr>  <dbl>     <dbl>  <dbl> <chr>   <chr>          <dbl>
##  1 <split [1977/220]> Fold01  1.29    5.72   -1.13  rmse    standard     93195. 
##  2 <split [1977/220]> Fold01  1.29    5.72   -1.13  mae     standard     76961. 
##  3 <split [1977/220]> Fold01  1.29    5.72   -1.13  mape    standard        54.4
##  4 <split [1977/220]> Fold01  1.33    0.0111  0.504 rmse    standard     39947. 
##  5 <split [1977/220]> Fold01  1.33    0.0111  0.504 mae     standard     27681. 
##  6 <split [1977/220]> Fold01  1.33    0.0111  0.504 mape    standard        18.6
##  7 <split [1977/220]> Fold01  1.37    0.0116  0.759 rmse    standard     41618. 
##  8 <split [1977/220]> Fold01  1.37    0.0116  0.759 mae     standard     29745. 
##  9 <split [1977/220]> Fold01  1.37    0.0116  0.759 mape    standard        20.3
## 10 <split [1977/220]> Fold01  1.10  351.      1.08  rmse    standard     92508. 
## # … with 2,990 more rows, and 3 more variables: .config <chr>, .notes <list>,
## #   .predictions <list>

Paso 7:

collect_metrics(svm_tune_result)

## # A tibble: 300 × 9
##     cost rbf_sigma margin .metric .estimator    mean     n  std_err .config     
##    <dbl>     <dbl>  <dbl> <chr>   <chr>        <dbl> <int>    <dbl> <chr>       
##  1  1.29    5.72   -1.13  mae     standard   69853.     10 1027.    Preprocesso…
##  2  1.29    5.72   -1.13  mape    standard      50.6    10    1.12  Preprocesso…
##  3  1.29    5.72   -1.13  rmse    standard   85670.     10 1623.    Preprocesso…
##  4  1.33    0.0111  0.504 mae     standard   26235.     10  654.    Preprocesso…
##  5  1.33    0.0111  0.504 mape    standard      16.3    10    0.572 Preprocesso…
##  6  1.33    0.0111  0.504 rmse    standard   37486.     10 1392.    Preprocesso…
##  7  1.37    0.0116  0.759 mae     standard   29323.     10  598.    Preprocesso…
##  8  1.37    0.0116  0.759 mape    standard      18.7    10    0.599 Preprocesso…
##  9  1.37    0.0116  0.759 rmse    standard   40146.     10 1318.    Preprocesso…
## 10  1.10  351.      1.08  mae     standard   68040.     10 1067.    Preprocesso…
## # … with 290 more rows
…
