Capítulo 4 Support Vector Machine (SVM) | AMAT- Ciencia de Datos y Machine Learning 2
…
svm_parameters_set <- parameters(svm_workflow) %>% 
  update(
   rbf_sigma = rbf_sigma(c(-2.5, 2.5)), 
   cost = cost(c(0, 15))
   )

set.seed(123)
svm_grid <- svm_parameters_set %>% 
  grid_max_entropy(size = 80)
svm_grid

## # A tibble: 80 × 3
##        cost rbf_sigma margin
##       <dbl>     <dbl>  <dbl>
##  1   357.      0.0839 0.110 
##  2 10956.      5.22   0.180 
##  3  5733.     96.0    0.0128
##  4 26216.      7.45   0.197 
##  5     3.59    0.0661 0.121 
##  6    56.6     0.0153 0.114 
##  7  6478.      1.95   0.0277
##  8     6.66    0.0391 0.0818
##  9    58.6     0.0842 0.114 
## 10    14.3     0.0633 0.0522
## # … with 70 more rows
…
stopCluster(cluster)

svm_tune_result %>% saveRDS("models/svm_model_reg.rds")

Podemos obtener las métricas de cada fold con el siguiente código:

svm_tune_result <- readRDS("models/svm_model_reg.rds")

unnest(svm_tune_result, .metrics)

## # A tibble: 2,400 × 11
##    splits             id      cost rbf_sigma margin .metric .estimator .estimate
##    <list>             <chr>  <dbl>     <dbl>  <dbl> <chr>   <chr>          <dbl>
##  1 <split [1977/220]> Fold…   357.    0.0839 0.110  rmse    standard     43741. 
##  2 <split [1977/220]> Fold…   357.    0.0839 0.110  mae     standard     28240. 
##  3 <split [1977/220]> Fold…   357.    0.0839 0.110  mape    standard        18.6
##  4 <split [1977/220]> Fold… 10956.    5.22   0.180  rmse    standard     90721. 
##  5 <split [1977/220]> Fold… 10956.    5.22   0.180  mae     standard     66139. 
##  6 <split [1977/220]> Fold… 10956.    5.22   0.180  mape    standard        42.4
##  7 <split [1977/220]> Fold…  5733.   96.0    0.0128 rmse    standard     91135. 
##  8 <split [1977/220]> Fold…  5733.   96.0    0.0128 mae     standard     65465. 
##  9 <split [1977/220]> Fold…  5733.   96.0    0.0128 mape    standard        41.4
## 10 <split [1977/220]> Fold… 26216.    7.45   0.197  rmse    standard     90721. 
## # … with 2,390 more rows, and 3 more variables: .config <chr>, .notes <list>,
## #   .predictions <list>

collect_metrics(svm_tune_result)

## # A tibble: 240 × 9
##      cost rbf_sigma margin .metric .estimator    mean     n  std_err .config    
##     <dbl>     <dbl>  <dbl> <chr>   <chr>        <dbl> <int>    <dbl> <chr>      
##  1   357.    0.0839 0.110  mae     standard   27201.     10  613.    Preprocess…
##  2   357.    0.0839 0.110  mape    standard      16.7    10    0.560 Preprocess…
##  3   357.    0.0839 0.110  rmse    standard   41958.     10 1942.    Preprocess…
##  4 10956.    5.22   0.180  mae     standard   58568.     10 1278.    Preprocess…
##  5 10956.    5.22   0.180  mape    standard      38.6    10    0.964 Preprocess…
##  6 10956.    5.22   0.180  rmse    standard   79247.     10 2398.    Preprocess…
##  7  5733.   96.0    0.0128 mae     standard   57838.     10 1329.    Preprocess…
##  8  5733.   96.0    0.0128 mape    standard      37.5    10    0.949 Preprocess…
##  9  5733.   96.0    0.0128 rmse    standard   79280.     10 2491.    Preprocess…
## 10 26216.    7.45   0.197  mae     standard   58735.     10 1274.    Preprocess…
## # … with 230 more rows
…
