Capítulo 4 Support Vector Machine (SVM) | AMAT- Ciencia de Datos y Machine Learning 2
…
stopCluster(cluster)

svm_tune_result %>% saveRDS("models/svm_model_reg.rds")

Podemos obtener las métricas de cada fold con el siguiente código:

svm_tune_result <- readRDS("models/svm_model_reg.rds")

svm_tune_result %>% unnest(.metrics)

## # A tibble: 2,400 × 11
##    splits             id      cost rbf_sigma margin .metric .estimator .estimate
##    <list>             <chr>  <dbl>     <dbl>  <dbl> <chr>   <chr>          <dbl>
##  1 <split [1977/220]> Fold…   357.    0.0839 0.110  rmse    standard     43741. 
##  2 <split [1977/220]> Fold…   357.    0.0839 0.110  mae     standard     28240. 
##  3 <split [1977/220]> Fold…   357.    0.0839 0.110  mape    standard        18.6
##  4 <split [1977/220]> Fold… 10956.    5.22   0.180  rmse    standard     90721. 
##  5 <split [1977/220]> Fold… 10956.    5.22   0.180  mae     standard     66139. 
##  6 <split [1977/220]> Fold… 10956.    5.22   0.180  mape    standard        42.4
##  7 <split [1977/220]> Fold…  5733.   96.0    0.0128 rmse    standard     91135. 
##  8 <split [1977/220]> Fold…  5733.   96.0    0.0128 mae     standard     65465. 
##  9 <split [1977/220]> Fold…  5733.   96.0    0.0128 mape    standard        41.4
## 10 <split [1977/220]> Fold… 26216.    7.45   0.197  rmse    standard     90721. 
## # … with 2,390 more rows, and 3 more variables: .config <chr>, .notes <list>,
## #   .predictions <list>
…
